{
  "project_info": {
    "project_number": "870513521797",
    "firebase_url": "https://app-viaggio.firebaseio.com",
    "project_id": "app-viaggio",
    "storage_bucket": "app-viaggio.appspot.com"
  },
  "client": [
    {
      "client_info": {
        "mobilesdk_app_id": "1:870513521797:android:072b48f3c7cbda3e",
        "android_client_info": {
          "package_name": "com.example.flutter_app"
        }
      },
      "oauth_client": [
        {
          "client_id": "870513521797-d5pka5h0qq9vf138k7ru2hd6r8fhaigg.apps.googleusercontent.com",
          "client_type": 1,
          "android_info": {
            "package_name": "com.example.flutter_app",
            "certificate_hash": "d418b54339f92d91ed3f02a6e6717ac0e8a2383f"
          }
        },
        {
          "client_id": "870513521797-hvpihh4v28gi6gf31t3t38ldqi24horv.apps.googleusercontent.com",
          "client_type": 3
        }
      ],
      "api_key": [
        {
          "current_key": "AIzaSyCvlMMRgons4DNqTc1pqpUPu0685XIQNrk"
        }
      ],
      "services": {
        "appinvite_service": {
          "other_platform_oauth_client": [
            {
              "client_id": "870513521797-hvpihh4v28gi6gf31t3t38ldqi24horv.apps.googleusercontent.com",
              "client_type": 3
            }
          ]
        }
      }
    }
  ],
  "configuration_version": "1"
}